{"data": [{"id": 418, "name": "\u0415\u043b\u0435\u043d\u0430 \u0411\u043e\u0436\u0438\u043d\u0430", "url": "https://chico.kz/masters/elena-bozhina", "avatar": "https://chico.kz/storage/profiles/master/elena-bozhina/avatar/thumb/x9lp4JI2TLYc2aLUR0cxPLfR6.png", "specializations": "\u041d\u0435\u0439\u043b-\u0441\u0442\u0438\u043b\u0438\u0441\u0442", "photos": [{"id": 3498, "small": "https://chico.kz/storage/profiles/master/elena-bozhina/images/thumb/rv7EENOm1MVilUMLAi6plu2YoYuOChdvvz0cRd1b.jpg", "extraSmall": "https://chico.kz/storage/profiles/master/elena-bozhina/images/thumb/KMOQ9vh98tsDPQ5fJi2UozkBcVJOD29Gr69D92sW.jpg", "main": "https://chico.kz/storage/profiles/master/elena-bozhina/images/UOS0prhapzlggZsxuX8FZuy2AyHbgbIuwvWQaYoX.jpg", "description": null}, {"id": 3499, "small": "https://chico.kz/storage/profiles/master/elena-bozhina/images/thumb/XXqOdp4e252zEYRc4a0YnecgUJYIFZl4CG9NuUEB.jpg", "extraSmall": "https://chico.kz/storage/profiles/master/elena-bozhina/images/thumb/Y78h59so9R7yu4xVp9Xx1YvZyrZzErVhTIiZWr1W.jpg", "main": "https://chico.kz/storage/profiles/master/elena-bozhina/images/0UKXgdyALHPr1TxjXUGwnqNFTHwRfSZZDrVQmPXB.jpg", "description": null}, {"id": 3500, "small": "https://chico.kz/storage/profiles/master/elena-bozhina/images/thumb/97kPKrd15AzYG1V83tMjBHSlTvwVy04R8Fu9WMdl.jpg", "extraSmall": "https://chico.kz/storage/profiles/master/elena-bozhina/images/thumb/E2BUSywyszvuj9mAdR5m1sL9gN8yCgIdJp9iu1sC.jpg", "main": "https://chico.kz/storage/profiles/master/elena-bozhina/images/hOWyHSZQolxVsqLN7jpZwORllGcm6M97p2RZa0Va.jpg", "description": null}, {"id": 3501, "small": "https://chico.kz/storage/profiles/master/elena-bozhina/images/thumb/grtUcaE14LP4AF66VgeqhXVEqQW9FJ5HKzFpGBrV.jpg", "extraSmall": "https://chico.kz/storage/profiles/master/elena-bozhina/images/thumb/wGK5elhO9F0VFDsXz1XxNuutnlzqT7N7299WjbfJ.jpg", "main": "https://chico.kz/storage/profiles/master/elena-bozhina/images/08dDrFl8EQOkuXRnQWEKa3lMHOnzpVYJCTk6iOuI.jpg", "description": null}, {"id": 3502, "small": "https://chico.kz/storage/profiles/master/elena-bozhina/images/thumb/yIFtiO5hpydjFVB8rt0NOnM6Gf0jyB1UeGEKgQ97.jpg", "extraSmall": "https://chico.kz/storage/profiles/master/elena-bozhina/images/thumb/XP2BMeFiI4ZICD6C6IdILK95zj00KpixjTlRMA9g.jpg", "main": "https://chico.kz/storage/profiles/master/elena-bozhina/images/scw18qUR3JVb5jCvaiNjqEXSoKijMzrN0UqmFsxM.jpg", "description": null}], "reviewCount": 0, "commonRate": 5, "address": "\u0443\u043b. \u041a\u0430\u0436\u044b\u043c\u0443\u043a\u0430\u043d\u0430 37, \u0416\u041a \"\u0420\u0430\u043f\u0441\u043e\u0434\u0438\u044f\"", "coords": {"latitude": "43.22576324832", "longitude": "76.957705020905"}, "graphics": "10:00-20:00(\u0431\u0435\u0437 \u0432\u044b\u0445\u043e\u0434\u043d\u044b\u0445)", "chunks": {"barber": false, "sale": false, "departure": false, "childrenReception": true, "childrenReceptionAge": null}, "photos_count": 150}, {"id": 834, "name": "\u0410\u043b\u0442\u044b\u043d\u0430\u0439 Nail Stylist", "url": "https://chico.kz/masters/altynay-nail-stylist", "avatar": "https://chico.kz/storage/profiles/master/altynay-nail-stylist/avatar/thumb/rW078FSPSK9RIqByGpHbQMsna.png", "specializations": "\u041d\u0435\u0439\u043b-\u0441\u0442\u0438\u043b\u0438\u0441\u0442", "photos": [{"id": 8901, "small": "https://chico.kz/storage/profiles/master/initial-77022036999/images/thumb/BTEfUGt24DNQOEYlmUEWW3FfRydhHpDBRpVT0RHI.jpg", "extraSmall": "https://chico.kz/storage/profiles/master/initial-77022036999/images/thumb/sQ7drW09vuydQMIsfh1xdQtMWT878lHc9uO6kT5b.jpg", "main": "https://chico.kz/storage/profiles/master/initial-77022036999/images/wjv4aWoxDrCFuEGVvDEGedT0IGzk7PRZjYQvy0UB.jpg", "description": null}, {"id": 8902, "small": "https://chico.kz/storage/profiles/master/initial-77022036999/images/thumb/lW85Rs3a8Yo8WUbLTr1AerXmwNc04exoHHooV6Im.jpg", "extraSmall": "https://chico.kz/storage/profiles/master/initial-77022036999/images/thumb/cSgYbh91srxrLDHNZjEl46uoVZ1f5YBrtNr8lt4z.jpg", "main": "https://chico.kz/storage/profiles/master/initial-77022036999/images/6VXYzjGZMDrxLNJZVowcGPxFZm2UO0SwZThbyd02.jpg", "description": null}, {"id": 8903, "small": "https://chico.kz/storage/profiles/master/initial-77022036999/images/thumb/Ji7PZgY4pNkTOMfcZAcOLjcPPDUPhoHF4XbfrIZA.jpg", "extraSmall": "https://chico.kz/storage/profiles/master/initial-77022036999/images/thumb/xXwgcZhxmiKR0viLubd4yxDLWifyYjHHB0n5awVv.jpg", "main": "https://chico.kz/storage/profiles/master/initial-77022036999/images/LHeMCGPSvHk8xunFjiUu7MNxMZooHDvozZ3IuI3w.jpg", "description": null}, {"id": 8904, "small": "https://chico.kz/storage/profiles/master/initial-77022036999/images/thumb/nJUUP3XCt8p908yNU0eKZljF7O0NUHuNdD2szjtF.jpg", "extraSmall": "https://chico.kz/storage/profiles/master/initial-77022036999/images/thumb/GC2redoEmWh17RDwMOTw6EiMHKBi7dwpAsngBEn7.jpg", "main": "https://chico.kz/storage/profiles/master/initial-77022036999/images/2u7poaFtLAQlU2tzp4r3WYFLqv6ocdaeq2GYEIdB.jpg", "description": null}, {"id": 8905, "small": "https://chico.kz/storage/profiles/master/initial-77022036999/images/thumb/iYkuBmH4YvErCkJIaLumA2DZDaZtH0xR08agdgS6.jpg", "extraSmall": "https://chico.kz/storage/profiles/master/initial-77022036999/images/thumb/cgPMWD6eyoyJeQeukltbrnRIyjIUmeB6GwHMKJzt.jpg", "main": "https://chico.kz/storage/profiles/master/initial-77022036999/images/BI9ACHuZZoFf6UH85H0b9qV8bh5btGST71ww2qXP.jpg", "description": null}], "reviewCount": 1, "commonRate": 5, "address": "\u0443\u043b.\u0422\u043e\u043b\u0435 \u0431\u0438 145", "coords": {"latitude": "43.25289076979304", "longitude": "76.91419642489541"}, "graphics": "09:00-20:00(\u0431\u0435\u0437 \u0432\u044b\u0445\u043e\u0434\u043d\u044b\u0445)", "chunks": {"barber": false, "sale": false, "departure": false, "childrenReception": false}, "photos_count": 106}, {"id": 1259, "name": "\u041a\u0441\u0435\u043d\u0438\u044f Nails", "url": "https://chico.kz/masters/kseniya-nails", "avatar": "https://chico.kz/storage/profiles/master/kseniya-nails/avatar/thumb/BC2s1LB39NEgkTOOI91JCiIrH.png", "specializations": "\u041d\u0435\u0439\u043b-\u0441\u0442\u0438\u043b\u0438\u0441\u0442", "photos": [{"id": 13134, "small": "https://chico.kz/storage/profiles/master/kseniya-nails/images/thumb/feUn0511Wxm7LpgU0UagQ6C2KmhtRPLLjqmM4Pki.jpg", "extraSmall": "https://chico.kz/storage/profiles/master/kseniya-nails/images/thumb/NGn0e5DjndMirVvovCZK5yPLSMqkaiRktVCu2dSK.jpg", "main": "https://chico.kz/storage/profiles/master/kseniya-nails/images/9sbaLTRVLPlnYOQ6EIVVOWwHFEl7mmx8o0W1Gjvs.jpg", "description": null}, {"id": 13135, "small": "https://chico.kz/storage/profiles/master/kseniya-nails/images/thumb/ui9hlrT9ErA8Kto6klenz55msWxlJdfz4Qym1R9I.jpg", "extraSmall": "https://chico.kz/storage/profiles/master/kseniya-nails/images/thumb/mNQcmpsB0AH0UFs9dUkbkBG4CqyfEbx31qYeFzCN.jpg", "main": "https://chico.kz/storage/profiles/master/kseniya-nails/images/GIPE0pQB1qhweipU186uo3byARwQ4EPwM2I1xY98.jpg", "description": null}, {"id": 13136, "small": "https://chico.kz/storage/profiles/master/kseniya-nails/images/thumb/FSYEtyzUYtqvqWp4O3pYdG2vOu8MRbfr3csBwavC.jpg", "extraSmall": "https://chico.kz/storage/profiles/master/kseniya-nails/images/thumb/fgjdf32KXo1gLDbiamUPLmseglDDGgY9emzb6Ijp.jpg", "main": "https://chico.kz/storage/profiles/master/kseniya-nails/images/LSbyU8fz6pTRxLIXLE2FmtOUI5jSL23gD3Caj2QK.jpg", "description": null}, {"id": 13137, "small": "https://chico.kz/storage/profiles/master/kseniya-nails/images/thumb/Hk36jV4S5ELFMryM53rVaM2dWG2hiQb5qAE1Hdor.jpg", "extraSmall": "https://chico.kz/storage/profiles/master/kseniya-nails/images/thumb/AN4cZVlSuUKjAIY5q3vO9Dup7cK9dKDa1rFajys5.jpg", "main": "https://chico.kz/storage/profiles/master/kseniya-nails/images/LKvvi4goJCMOZ3ZxA61DNIToabKduzle7pyqsLHs.jpg", "description": null}, {"id": 13138, "small": "https://chico.kz/storage/profiles/master/kseniya-nails/images/thumb/Q4k1rLmZBVN5GSkNevpOdhFaU7TyfGjAU2GKbEoy.jpg", "extraSmall": "https://chico.kz/storage/profiles/master/kseniya-nails/images/thumb/cyClwvNfKJldOtv395PSuzxxuUWp8Dsc3OAgpTYl.jpg", "main": "https://chico.kz/storage/profiles/master/kseniya-nails/images/YHATot4mUYmWxI2ZE0zfkO3V7gjfs3Kfyksn0UVD.jpg", "description": null}], "reviewCount": 0, "commonRate": 4.9, "address": "\u0443\u043b. \u041c\u0430\u0442\u0430\u0437\u0430\u043b\u043a\u0430 \u0443\u0433.\u0443\u043b. \u041c\u0430\u0440\u043a\u0447\u043a\u0430", "coords": {"latitude": "43.238581607038", "longitude": "76.859341820172"}, "graphics": "09:00-21:00(\u0431\u0435\u0437 \u0432\u044b\u0445\u043e\u0434\u043d\u044b\u0445)", "chunks": {"barber": false, "sale": false, "departure": false, "childrenReception": false, "childrenReceptionAge": null}, "photos_count": 8}, {"id": 897, "name": "\u0410\u0440\u0438\u043d\u0430 Nails", "url": "https://chico.kz/masters/arina-nails", "avatar": "https://chico.kz/storage/profiles/master/arina-nails/avatar/thumb/uVXjERTAkYVCjWOXOteEDL3le.png", "specializations": "\u041d\u0435\u0439\u043b-\u0441\u0442\u0438\u043b\u0438\u0441\u0442, \u041c\u0430\u0441\u0442\u0435\u0440 \u043f\u043e \u044d\u043f\u0438\u043b\u044f\u0446\u0438\u0438/\u0434\u0435\u043f\u0438\u043b\u044f\u0446\u0438\u0438", "photos": [{"id": 9501, "small": "https://chico.kz/storage/profiles/master/initial-77019443777/images/thumb/GTnQWeoEju27WyvNo0OWdF0YC40uYAdXUF8yOzEO.jpg", "extraSmall": "https://chico.kz/storage/profiles/master/initial-77019443777/images/thumb/UJ41RKyHIiw43qTUWV7EFBaGaBiQ1T8XyasWUEka.jpg", "main": "https://chico.kz/storage/profiles/master/initial-77019443777/images/NcPSEZcKlu6VwnNj70wYlWDi0iHG9AFZVbDiSmwH.jpg", "description": null}, {"id": 9502, "small": "https://chico.kz/storage/profiles/master/initial-77019443777/images/thumb/zSed5MYnGGzfGSOTRMQ0E2Fq8OYgIoqb4u5z7TTm.jpg", "extraSmall": "https://chico.kz/storage/profiles/master/initial-77019443777/images/thumb/2oSLcgV1tN29UoCxONcU9nJ5G1MWMADKE9sKmvaK.jpg", "main": "https://chico.kz/storage/profiles/master/initial-77019443777/images/QlUqvaiG0NI1OUE5ZFG4HwRTBo4Jrstfhd2q5iKs.jpg", "description": null}, {"id": 9503, "small": "https://chico.kz/storage/profiles/master/initial-77019443777/images/thumb/HEO8BtYxyVjx1ygQdwfN2NYaXZ8XOz0b3JGny9Ae.jpg", "extraSmall": "https://chico.kz/storage/profiles/master/initial-77019443777/images/thumb/fWYdYik96PVP0eucWu8pfAT4YroMcDeDl8dab55A.jpg", "main": "https://chico.kz/storage/profiles/master/initial-77019443777/images/BUfEcYEHOFymumbJ8TZxBQIONb1B8yvnp1dKprSR.jpg", "description": null}, {"id": 9504, "small": "https://chico.kz/storage/profiles/master/initial-77019443777/images/thumb/DTKmjtXYIK952LoHavHv9ioDFSnBVZgxyc6HQD5g.jpg", "extraSmall": "https://chico.kz/storage/profiles/master/initial-77019443777/images/thumb/pT7mmzMhAdZ9B2QlL7K0lLmRw4y0Of5sctMFTZZc.jpg", "main": "https://chico.kz/storage/profiles/master/initial-77019443777/images/R5ps9RGQDG6m4ZR0DDeG6R48m071AGLjEdAxL4fy.jpg", "description": null}, {"id": 9505, "small": "https://chico.kz/storage/profiles/master/initial-77019443777/images/thumb/tj2O8eqdzldeOl8nYqD9zms0fgCifsywWs7EN8y9.jpg", "extraSmall": "https://chico.kz/storage/profiles/master/initial-77019443777/images/thumb/Y42mQsOu2TVqguytUP8ywdooEZ5W3Wfvj1f9nubP.jpg", "main": "https://chico.kz/storage/profiles/master/initial-77019443777/images/kwxMDazsbxKdR2JHc1TeQ63CSnfat2OAeQIrY0gJ.jpg", "description": null}], "reviewCount": 0, "commonRate": 4.9, "address": "\u043c\u043a\u0440. \u0421\u0430\u043c\u0430\u043b-2, 111, \u0422\u0420\u0426 \"Dostyk Plaza\"", "coords": {"latitude": "43.2331661433", "longitude": "76.956567764282"}, "graphics": "10:00-20:00(\u0431\u0435\u0437 \u0432\u044b\u0445\u043e\u0434\u043d\u044b\u0445)", "chunks": {"barber": false, "sale": false, "departure": false, "childrenReception": false}, "photos_count": 73}, {"id": 871, "name": "\u0415\u043b\u0435\u043d\u0430 \u041f\u043e\u043f\u043e\u0432\u0430", "url": "https://chico.kz/masters/elena-popova", "avatar": "https://chico.kz/storage/profiles/master/elena-popova/avatar/thumb/CnOAXvruvEQaX6RptnwDi4Sfn.png", "specializations": "\u041d\u0435\u0439\u043b-\u0441\u0442\u0438\u043b\u0438\u0441\u0442", "photos": [{"id": 9261, "small": "https://chico.kz/storage/profiles/master/initial-77772376323/images/thumb/OXU6ZCX4j569COd5YsRhOQlC1uzJgaqxNOT1Bt6i.jpg", "extraSmall": "https://chico.kz/storage/profiles/master/initial-77772376323/images/thumb/RaTk06eYcrbS9k2kisEQ1uIXJkxg9GO9jI6fn9xY.jpg", "main": "https://chico.kz/storage/profiles/master/initial-77772376323/images/sey5Y2rOurbVvLXZKSZAzMlcKB5IX4IT8zAWTjbu.jpg", "description": null}, {"id": 9282, "small": "https://chico.kz/storage/profiles/master/elena-popova/images/thumb/fZA7mwO4QML5bakw3uQrBX5NdjvVAmpkKqOIvpAb.jpg", "extraSmall": "https://chico.kz/storage/profiles/master/elena-popova/images/thumb/lYQDOI1a1yuikJuVZTcrn3FmN9WhoXbYLfAgf92X.jpg", "main": "https://chico.kz/storage/profiles/master/elena-popova/images/58YZHtyApKvtIZDbh68HSP8STUnTpV0ERqoG60cV.jpg", "description": null}, {"id": 9283, "small": "https://chico.kz/storage/profiles/master/elena-popova/images/thumb/68kuBsKJAE0YLF3E314VKhGmBW1qgIoUhueJoSBk.jpg", "extraSmall": "https://chico.kz/storage/profiles/master/elena-popova/images/thumb/8K43Or7yUaU2Sm21PPSRCeWzLf6kfu9lvKq5qpMO.jpg", "main": "https://chico.kz/storage/profiles/master/elena-popova/images/6R96OSHs7gYqiWDOer20rjhfxZriESb6fsZ5qMy0.jpg", "description": null}, {"id": 9284, "small": "https://chico.kz/storage/profiles/master/elena-popova/images/thumb/7lExumibyUuvszps1uLs4t3BSWzs6WsCw6quApGw.jpg", "extraSmall": "https://chico.kz/storage/profiles/master/elena-popova/images/thumb/RlTnZjhw8tf0boWwxtKlfGPHhbe3e22yz1jz80Ic.jpg", "main": "https://chico.kz/storage/profiles/master/elena-popova/images/xXrGI7wyXRujTZi4jVD9LwoRNaTSdHRVLm5DNiXJ.jpg", "description": null}, {"id": 9285, "small": "https://chico.kz/storage/profiles/master/elena-popova/images/thumb/Y1NOxeriAuFSxGc27e8f2nFfzONVLAmoCYhGk8uz.jpg", "extraSmall": "https://chico.kz/storage/profiles/master/elena-popova/images/thumb/YoeSs7VbOKfgqzcmLlAgKLINkys5Gw2YPTK3zZTQ.jpg", "main": "https://chico.kz/storage/profiles/master/elena-popova/images/7Ps7OoP98RXkg0TOuUiL0vZ2Jd9LC64KSih7lwWk.jpg", "description": null}], "reviewCount": 0, "commonRate": 4.9, "address": "\u0443\u043b. \u0420\u043e\u0437\u044b\u0431\u0430\u043a\u0438\u0435\u0432\u0430 208", "coords": {"latitude": "43.225136295216", "longitude": "76.892108035451"}, "graphics": "11:00-20:00(\u0431\u0435\u0437 \u0432\u044b\u0445\u043e\u0434\u043d\u044b\u0445)", "chunks": {"barber": false, "sale": false, "departure": false, "childrenReception": false}, "photos_count": 131}, {"id": 870, "name": "Marina Kassumova", "url": "https://chico.kz/masters/marina-kassumova", "avatar": "https://chico.kz/storage/profiles/master/marina-kassumova/avatar/thumb/6UmXU3JmJHU1AxgyuueVclFzn.png", "specializations": "\u041d\u0435\u0439\u043b-\u0441\u0442\u0438\u043b\u0438\u0441\u0442", "photos": [{"id": 9252, "small": "https://chico.kz/storage/profiles/master/marina-kassumova/images/thumb/Ar1LwpW0RinUZEELgtNJiv7vTCZE1Y9TnhaA1Ywo.jpg", "extraSmall": "https://chico.kz/storage/profiles/master/marina-kassumova/images/thumb/QQkG3Iwup7F7kLXkyZbu518FyIWgrAWZWxsmsxdS.jpg", "main": "https://chico.kz/storage/profiles/master/marina-kassumova/images/kjCtfbg1pqZZA1G43QHFv6SRL6CqTcEyKJtuLRQK.jpg", "description": null}, {"id": 9253, "small": "https://chico.kz/storage/profiles/master/marina-kassumova/images/thumb/m6J8avxuy4AnLJ8ZfNsBJIaz6V23olGqKUNJA4x0.jpg", "extraSmall": "https://chico.kz/storage/profiles/master/marina-kassumova/images/thumb/V3dyE7C7pAU7mEcGuYFhBixX7CbrwFZH2VXfO1Ri.jpg", "main": "https://chico.kz/storage/profiles/master/marina-kassumova/images/Mk3dspclLjzy3fOuSKA8HGjXCejVqoTvhQnwjIQg.jpg", "description": null}, {"id": 9254, "small": "https://chico.kz/storage/profiles/master/marina-kassumova/images/thumb/hH0le8lu0E5pzJKzqy9yiM0EUJR23v3cBKJ46gwX.jpg", "extraSmall": "https://chico.kz/storage/profiles/master/marina-kassumova/images/thumb/T7dPblMmFXOatEHnKmBHCFjqErvO89WbGbGs9L1d.jpg", "main": "https://chico.kz/storage/profiles/master/marina-kassumova/images/3pECBtmzho9A2NUlZF87IphOztCVUFEQUkaPZpef.jpg", "description": null}, {"id": 9255, "small": "https://chico.kz/storage/profiles/master/marina-kassumova/images/thumb/96XekjxqmQ4zmY2aPVVxfp3w4VWFi6lHfsv0ltQc.jpg", "extraSmall": "https://chico.kz/storage/profiles/master/marina-kassumova/images/thumb/hYLwSUVnRJlH2HKjhnDzx1IvzWGx4dmrpOeRbvhT.jpg", "main": "https://chico.kz/storage/profiles/master/marina-kassumova/images/xduPnG1L6ueAXuMqQVU9bUVJZwYy2bKFj99PpJIQ.jpg", "description": null}, {"id": 9256, "small": "https://chico.kz/storage/profiles/master/marina-kassumova/images/thumb/KQPdCPXZKTXI7TMzm4XIGgpdtnxxohuZuSUWA7et.jpg", "extraSmall": "https://chico.kz/storage/profiles/master/marina-kassumova/images/thumb/x6HIoCWY0Eh5GyNu7SL8kbmpf6gj6g4DEDWdLI22.jpg", "main": "https://chico.kz/storage/profiles/master/marina-kassumova/images/dvSdkVyQZQ4H4T62tdTgCgG8otxOU3194Hk7jER3.jpg", "description": null}], "reviewCount": 0, "commonRate": 4.9, "address": "\u0443\u043b. \u0428\u0435\u0432\u0447\u0435\u043d\u043a\u043e, 18", "coords": {"latitude": 43.24647003984392, "longitude": 76.95384051348049}, "graphics": "10:00-20:00(\u0431\u0435\u0437 \u0432\u044b\u0445\u043e\u0434\u043d\u044b\u0445)", "chunks": {"barber": false, "sale": false, "departure": false, "childrenReception": false, "childrenReceptionAge": null}, "photos_count": 77}, {"id": 856, "name": "\u0420\u0430\u0434\u0430 Nails Stylist", "url": "https://chico.kz/masters/rada-nails-stylist", "avatar": "https://chico.kz/storage/profiles/master/rada-nails-stylist/avatar/thumb/lLmYBM4rct6Wty9Bu6Yb0FH0w.png", "specializations": "\u041d\u0435\u0439\u043b-\u0441\u0442\u0438\u043b\u0438\u0441\u0442", "photos": [{"id": 9163, "small": "https://chico.kz/storage/profiles/master/initial-77475285056/images/thumb/hGJijodccLfMSio7LOOr6IhtEN2Lt3VFukxhtydQ.jpg", "extraSmall": "https://chico.kz/storage/profiles/master/initial-77475285056/images/thumb/AVeql9S3VoKWr6kyPLBXtT65lEBskbySiPBbYeZd.jpg", "main": "https://chico.kz/storage/profiles/master/initial-77475285056/images/haYknnRimYAucq4zt8eDLeQBdZ9J6JIoaUrwfLaj.jpg", "description": null}, {"id": 9164, "small": "https://chico.kz/storage/profiles/master/initial-77475285056/images/thumb/G8w1S3qItDjoMHbDSt3YhqYCqp4MbL9vtPhbG9T0.jpg", "extraSmall": "https://chico.kz/storage/profiles/master/initial-77475285056/images/thumb/2C1hwbFZMpI53ulqwVZxFAcSVD9IQ1s8xsE7ZBAN.jpg", "main": "https://chico.kz/storage/profiles/master/initial-77475285056/images/cegqb4b8SWZXmcT4wO5bru9sBT8afX39iSvORhfe.jpg", "description": null}, {"id": 9165, "small": "https://chico.kz/storage/profiles/master/initial-77475285056/images/thumb/hOC39MVdlF0G2HaDDaVcJembKs7IekYfKm8ezsCC.jpg", "extraSmall": "https://chico.kz/storage/profiles/master/initial-77475285056/images/thumb/2xNCHSBJL6TXTGVSAs3FAF6zQlIgI0rrIahme9vG.jpg", "main": "https://chico.kz/storage/profiles/master/initial-77475285056/images/TSDyB59DLZY8ZtZ7hTTA9mZjakI8A7RHE06s7IV3.jpg", "description": null}, {"id": 9166, "small": "https://chico.kz/storage/profiles/master/initial-77475285056/images/thumb/By5FdqjCL2IOgnf2di54i05nJnY1Xtc9q9cfqvvB.jpg", "extraSmall": "https://chico.kz/storage/profiles/master/initial-77475285056/images/thumb/900UWr8FDetjRfg9Un5YEIqN7ftS6MiuZuyLYsTh.jpg", "main": "https://chico.kz/storage/profiles/master/initial-77475285056/images/99OarZcyFsgQbApwv1qzr0QuCdur6PN3lNQIuWEI.jpg", "description": null}, {"id": 9167, "small": "https://chico.kz/storage/profiles/master/initial-77475285056/images/thumb/Zjt64lNkkNoGaEO7AirHAspaXGk9A7jdsA8n0wfz.jpg", "extraSmall": "https://chico.kz/storage/profiles/master/initial-77475285056/images/thumb/dgNFj7PNt6aaxnPb2TLInLW6E9iJ2c9yCOOtZl8Q.jpg", "main": "https://chico.kz/storage/profiles/master/initial-77475285056/images/Nat14d0dTHn8Cn25nKwNjfZgGNdwHukUDoRnHAGH.jpg", "description": null}], "reviewCount": 0, "commonRate": 4.9, "address": "\u043f\u0440. \u0410\u0431\u044b\u043b\u0430\u0439 \u0445\u0430\u043d\u0430 39", "coords": {"latitude": "43.26778527307627", "longitude": "76.93909634836359"}, "graphics": "10:00-20:00(\u0431\u0435\u0437 \u0432\u044b\u0445\u043e\u0434\u043d\u044b\u0445)", "chunks": {"barber": false, "sale": false, "departure": false, "childrenReception": true, "childrenReceptionAge": null}, "photos_count": 104}, {"id": 607, "name": "\u041b\u0430\u0440\u0438\u0441\u0430 \u041c\u0430\u0440\u044b\u043d\u043a\u0438\u043d\u0430", "url": "https://chico.kz/masters/larisa-marynkina", "avatar": "https://chico.kz/storage/profiles/master/larisa-marynkina/avatar/thumb/eVGgrw41XSm1wG3yhxZJZnxW7.png", "specializations": "\u041d\u0435\u0439\u043b-\u0441\u0442\u0438\u043b\u0438\u0441\u0442, \u041b\u0435\u0448\u043c\u0435\u0439\u043a\u0435\u0440, \u0412\u0438\u0437\u0430\u0436\u0438\u0441\u0442", "photos": [{"id": 6431, "small": "https://chico.kz/storage/profiles/master/larisa-marynkina/images/thumb/4xnjKmBHY9NzfNDG8z3YGXhQfb2tiNJU2GZH4Aw9.jpg", "extraSmall": "https://chico.kz/storage/profiles/master/larisa-marynkina/images/thumb/DY03SGd1HNbuuilQi2FO0mgVOHlTz3o6W8TPwXLW.jpg", "main": "https://chico.kz/storage/profiles/master/larisa-marynkina/images/0dyFSusT2ayW9oDEFOMf5ellC0G42q1YggbZSvLw.jpg", "description": null}, {"id": 6432, "small": "https://chico.kz/storage/profiles/master/larisa-marynkina/images/thumb/Pvh8WvgWc2qLGViVArlB7IWsfhAlrAlMtedL45Fz.jpg", "extraSmall": "https://chico.kz/storage/profiles/master/larisa-marynkina/images/thumb/PWFi3vFAH5WtIKERpsyROXtkXLSikOU3GI2EfIxO.jpg", "main": "https://chico.kz/storage/profiles/master/larisa-marynkina/images/4IM2p05XcSFhg9zCnXirTyKbGlQS51XnOxR1PymR.jpg", "description": null}, {"id": 6433, "small": "https://chico.kz/storage/profiles/master/larisa-marynkina/images/thumb/0s348QHskh5v8EZYuNgy7LgBax2atgWdi7t0KgBj.jpg", "extraSmall": "https://chico.kz/storage/profiles/master/larisa-marynkina/images/thumb/tOkqBTBjKOpMhympFNvFxOGTFsvtMExozihOUkZa.jpg", "main": "https://chico.kz/storage/profiles/master/larisa-marynkina/images/O2TmVtgtmoFcctsx5QiU8syxrDhWlCGVR9nURkmp.jpg", "description": null}, {"id": 6434, "small": "https://chico.kz/storage/profiles/master/larisa-marynkina/images/thumb/p1xbYpTMAskc1j5uGOGyGejdkUbYF4PjuBEWb1UI.jpg", "extraSmall": "https://chico.kz/storage/profiles/master/larisa-marynkina/images/thumb/ZTj6weVgpiMo3XwinERiic9mS9tNY9DiJ3pgcKhL.jpg", "main": "https://chico.kz/storage/profiles/master/larisa-marynkina/images/B82v0MZDA9ih4qYKxxDOgsGqN7xkAxNHF44PNYuV.jpg", "description": null}, {"id": 6435, "small": "https://chico.kz/storage/profiles/master/larisa-marynkina/images/thumb/gVRYL4OgRFbbbYjk8WSlNoSF1aYiTaVXEnuZSCfy.jpg", "extraSmall": "https://chico.kz/storage/profiles/master/larisa-marynkina/images/thumb/LzjDYoeO220xmPrSDmQ6UdJEx8IXv584DlRhufsI.jpg", "main": "https://chico.kz/storage/profiles/master/larisa-marynkina/images/D9H0KhIImhpJXOjd2CYp1ceVhcvJ1FBLZTvb9Tln.jpg", "description": null}], "reviewCount": 0, "commonRate": 4.9, "address": "\u0443\u043b. \u0421\u0430\u0442\u043f\u0430\u0435\u0432\u0430 30 \u0430/3", "coords": {"latitude": "43.241496675243", "longitude": "76.92295880354"}, "graphics": "09:00-20:00(\u0431\u0435\u0437 \u0432\u044b\u0445\u043e\u0434\u043d\u044b\u0445)", "chunks": {"barber": false, "sale": false, "departure": true, "childrenReception": false, "childrenReceptionAge": null}, "photos_count": 45}, {"id": 837, "name": "\u041a\u0430\u0440\u0438\u043d\u0430 Nail Stylist", "url": "https://chico.kz/masters/karina-nail-stylist", "avatar": "https://chico.kz/storage/profiles/master/karina-nail-stylist/avatar/thumb/yCPMQZAHP0WWuVFZXjYq6Ikkk.png", "specializations": "\u041d\u0435\u0439\u043b-\u0441\u0442\u0438\u043b\u0438\u0441\u0442", "photos": [{"id": 8934, "small": "https://chico.kz/storage/profiles/master/initial-77074111978/images/thumb/vPbG6vyguv0mW4gpG60OzBpi07Lryc3Kg5Q2eIN2.jpg", "extraSmall": "https://chico.kz/storage/profiles/master/initial-77074111978/images/thumb/88wZFfeOFz6i0hNdr5E6mTh0MjKObcPbsyBUatjy.jpg", "main": "https://chico.kz/storage/profiles/master/initial-77074111978/images/n1xVauj2saYKLXUsnmHN8EaRyKWqgXDBBEhCpWKD.jpg", "description": null}, {"id": 8935, "small": "https://chico.kz/storage/profiles/master/initial-77074111978/images/thumb/dPCwiEeN6a18dD9Xh2tN76HmBt8bFzwVdC8ea96m.jpg", "extraSmall": "https://chico.kz/storage/profiles/master/initial-77074111978/images/thumb/yrIQMCxmo9OBHu0GfpDD5j98RInTIdbVU798K5BV.jpg", "main": "https://chico.kz/storage/profiles/master/initial-77074111978/images/6aycIA2XNDLnGrzm8SbaRtgEIWcWkct4NLlkP2ME.jpg", "description": null}, {"id": 8936, "small": "https://chico.kz/storage/profiles/master/initial-77074111978/images/thumb/vmVxyw3hu9obOcxTZC0BhHJbzYvlzgE29M1vRgKf.jpg", "extraSmall": "https://chico.kz/storage/profiles/master/initial-77074111978/images/thumb/zXbMhbiWMBBL8KbQH1R3oaDdfhCFEz0AhXiXAP3L.jpg", "main": "https://chico.kz/storage/profiles/master/initial-77074111978/images/m8gxeyqqVT0X7YXHm3GcvzCQfQPXtvB1FQBfxMie.jpg", "description": null}, {"id": 8937, "small": "https://chico.kz/storage/profiles/master/initial-77074111978/images/thumb/t64NnEITK7oX6MKeQTTv4pU9zNyAN0pKaxtoEiTv.jpg", "extraSmall": "https://chico.kz/storage/profiles/master/initial-77074111978/images/thumb/67e0EYAKO1prUwXlFGNMRqN80raoAnH47do9zchf.jpg", "main": "https://chico.kz/storage/profiles/master/initial-77074111978/images/lfZActzD3V6d3oeO2ZsyEN06DmcwkJTkPzBVWrZ4.jpg", "description": null}, {"id": 8938, "small": "https://chico.kz/storage/profiles/master/initial-77074111978/images/thumb/us8TBDtuyDz76DEcTsMlOtXUVJWI23dMiUTWkxc9.jpg", "extraSmall": "https://chico.kz/storage/profiles/master/initial-77074111978/images/thumb/Z3Pj9OZi7HW3TB0uxh7oVFrYrrE6E86ROdv7Ldd2.jpg", "main": "https://chico.kz/storage/profiles/master/initial-77074111978/images/MYdavsfuaOdlRXPJmYo9ZuQNMzjGfMdLPYiOMcwe.jpg", "description": null}], "reviewCount": 0, "commonRate": 4.9, "address": "\u043c\u043a\u0440. \u041a\u0430\u043b\u043a\u0430\u043c\u0430\u043d \u0443\u043b. \u041d\u0430\u0443\u0440\u044b\u0437\u0431\u0430\u0439 \u0431\u0430\u0442\u044b\u0440\u0430 43", "coords": {"latitude": 43.22587449910498, "longitude": 76.81765477945112}, "graphics": "10:00-20:00(\u0431\u0435\u0437 \u0432\u044b\u0445\u043e\u0434\u043d\u044b\u0445)", "chunks": {"barber": false, "sale": false, "departure": false, "childrenReception": false, "childrenReceptionAge": null}, "photos_count": 110}, {"id": 823, "name": "\u0410\u0439\u0433\u0443\u043b\u044c \u0428\u043e\u0439\u043d\u043e\u0432\u0430", "url": "https://chico.kz/masters/aygul-shoynova", "avatar": "https://chico.kz/storage/profiles/master/aygul-shoynova/avatar/thumb/TWSnaBI5O803zBN36jWlQ34yA.png", "specializations": "\u041d\u0435\u0439\u043b-\u0441\u0442\u0438\u043b\u0438\u0441\u0442", "photos": [{"id": 8798, "small": "https://chico.kz/storage/profiles/master/aygul-shoynova/images/thumb/gcFOvq7lhTYgvSgquXwOrTZVOf5QWYFOyIKKmwUP.jpg", "extraSmall": "https://chico.kz/storage/profiles/master/aygul-shoynova/images/thumb/8O7QyBOGeBfb5yfaLTPIf4CJRlTPUQRl0MncPBMO.jpg", "main": "https://chico.kz/storage/profiles/master/aygul-shoynova/images/vocoj7aOFMbqEbcUrDs3h7ZHvpavav8n1T8tKMHB.jpg", "description": null}, {"id": 8799, "small": "https://chico.kz/storage/profiles/master/aygul-shoynova/images/thumb/2anFnHzjmDAqZkBZfYXhpU2Tx9bmGF5C3EUJGxbz.jpg", "extraSmall": "https://chico.kz/storage/profiles/master/aygul-shoynova/images/thumb/CQ2PnqeVkiiBaZW0uxu69YtvO11xFvyrZk2XdvD9.jpg", "main": "https://chico.kz/storage/profiles/master/aygul-shoynova/images/DPr0KjGbmMTTjj5FzNrZQwcCOpS1wOa71IWLt1hQ.jpg", "description": null}, {"id": 8800, "small": "https://chico.kz/storage/profiles/master/aygul-shoynova/images/thumb/a7PGri4pRjtt3kP9FLClOBV0T5t2EvPyRra4X3TO.jpg", "extraSmall": "https://chico.kz/storage/profiles/master/aygul-shoynova/images/thumb/hL5VNEGgi5MqEmmZ1wcPqRaGgcjDH7102JS3eice.jpg", "main": "https://chico.kz/storage/profiles/master/aygul-shoynova/images/9VdYj9wCBX3u413AKf1RSWYdazQULHzaxfHVPI8E.jpg", "description": null}, {"id": 8802, "small": "https://chico.kz/storage/profiles/master/aygul-shoynova/images/thumb/XQteS8uJbduh0K6zgtc1YxQKYDODib6pqVxte1Fi.jpg", "extraSmall": "https://chico.kz/storage/profiles/master/aygul-shoynova/images/thumb/mG5Sfn2IS5wqssYnjqIOg8OUIJ9oOZJd8GDv4adI.jpg", "main": "https://chico.kz/storage/profiles/master/aygul-shoynova/images/VEGlYcRtV3DUKelb4g5DCAvH6pbx3vIufCTNs97v.jpg", "description": null}, {"id": 8803, "small": "https://chico.kz/storage/profiles/master/aygul-shoynova/images/thumb/MUOQsRtnBodB8wG1SILijLEAEk3kKzIi3SL9d2XS.jpg", "extraSmall": "https://chico.kz/storage/profiles/master/aygul-shoynova/images/thumb/6LALn20K8qQKKWWaNOvxWhrJasCM8l9eTMQLz9kf.jpg", "main": "https://chico.kz/storage/profiles/master/aygul-shoynova/images/Na6RoTAiEABFznzQw9AY6LIn4rpxONBNzIzBtDRb.jpg", "description": null}], "reviewCount": 0, "commonRate": 4.9, "address": "\u0443\u043b. \u041d\u0430\u0443\u0440\u044b\u0437\u0431\u0430\u0439 \u0431\u0430\u0442\u044b\u0440\u0430 43", "coords": {"latitude": "43.2583167475596", "longitude": "76.9352717176771"}, "graphics": "11:00-20:00 (\u041f\u043d-\u0421\u0431)", "chunks": {"barber": false, "sale": false, "departure": false, "childrenReception": false}, "photos_count": 75}], "meta": {"current_page": 1, "from": 1, "last_page": 15, "path": "https://chico.kz/api/users/masters/nogti", "per_page": 10, "to": 10, "total": 146}, "links": {"first": "https://chico.kz/api/users/masters/nogti?page=1", "last": "https://chico.kz/api/users/masters/nogti?page=15", "prev": null, "next": "https://chico.kz/api/users/masters/nogti?page=2"}}